{
	"log timestamp format": "%Y-%m-%d %H:%M:%S",
	"ascii art file": "art.txt",
	"log file": "log.txt",
	"file in repository": "hello",
	"first week": 15,
	"year of first week": 2022,
	"seconds between commits": 3,
	"repeat": true,
	"palette": {
		{
			"8": 50,

			"D": 40,
			"Y": 40,
			"P": 40,

			"o": 30,
			"~": 30,

			"d": 20,
			"b": 20,

			"'": 10,
			"`": 10,
			".": 10,

			" ": 0
		}
}
